Take-Home Exercise 3 – IS415-Geospatial
…
Next, we use filter() to extract only the armed conflict events that take place in these provinces from points_23883. In addition, we use select(), also part of dplyr, to retain only the fields containing the event date, event type, involved parties (actor 1 and actor 2), the province (admin 1) and regency/city (admin2) where the event occurred, the number of fatalities, notes about the event, and the point geometry, for each event.

points_study <- points_23883 %>%
  filter(admin1 %in% provincenames) %>%
  select(event_date, event_type, actor1, actor2, admin1, admin2, fatalities, notes, geometry)

points_study

Simple feature collection with 2942 features and 8 fields
Geometry type: POINT
Dimension:     XY
Bounding box:  xmin: -23320.68 ymin: 9056317 xmax: 1153416 ymax: 9956392
Projected CRS: DGN95 / UTM zone 53S
# A tibble: 2,942 × 9
   event_date   event_type          actor1 actor2 admin1 admin2 fatalities notes
   <chr>        <chr>               <chr>  <chr>  <chr>  <chr>       <dbl> <chr>
 1 30 June 2024 Violence against c… Milit… Civil… Centr… Intan…          1 On 3…
 2 29 June 2024 Strategic developm… Civil… <NA>   Centr… Puncak          0 Disp…
 3 29 June 2024 Battles             TPNPB… Milit… Centr… Puncak          1 On 2…
 4 28 June 2024 Protests            Prote… <NA>   Papua  Jayap…          0 On 2…
 5 28 June 2024 Protests            Prote… <NA>   South… Sorong          0 On 2…
 6 28 June 2024 Battles             TPNPB… Milit… Centr… Puncak          0 On 2…
 7 27 June 2024 Protests            Prote… <NA>   South… South…          0 On 2…
 8 27 June 2024 Protests            Prote… <NA>   Papua  Jayap…          0 On 2…
 9 22 June 2024 Battles             Milit… TPNPB… South… Maybr…          0 On 2…
10 22 June 2024 Protests            Prote… <NA>   Papua  Jayap…          0 On 2…
# ℹ 2,932 more rows
# ℹ 1 more variable: geometry <POINT [m]>
…
